<svg xmlns="http://www.w3.org/2000/svg" xmlns:xlink="http://www.w3.org/1999/xlink" width="438.687" height="333.35" viewBox="0 0 438.687 333.35">
  <defs>
    <linearGradient id="linear-gradient" y1="0.5" x2="1" y2="0.5" gradientUnits="objectBoundingBox">
      <stop offset="0" stop-color="#fff"/>
      <stop offset="1" stop-color="#4f52ff"/>
    </linearGradient>
    <linearGradient id="linear-gradient-2" x1="1.348" y1="-1.458" x2="4.594" y2="-8.947" gradientUnits="objectBoundingBox">
      <stop offset="0" stop-color="#09005d"/>
      <stop offset="1" stop-color="#1a0f91"/>
    </linearGradient>
    <linearGradient id="linear-gradient-3" x1="0.576" y1="-0.264" x2="-0.473" y2="13.755" gradientUnits="objectBoundingBox">
      <stop offset="0" stop-color="#febbba"/>
      <stop offset="1" stop-color="#ff928e"/>
    </linearGradient>
    <linearGradient id="linear-gradient-4" x1="1.189" y1="-0.291" x2="7.612" y2="-7.225" gradientUnits="objectBoundingBox">
      <stop offset="0" stop-color="#fe7062"/>
      <stop offset="1" stop-color="#ff928e"/>
    </linearGradient>
    <linearGradient id="linear-gradient-5" x1="-20.409" y1="0.5" x2="-19.409" y2="0.5" xlink:href="#linear-gradient-2"/>
    <linearGradient id="linear-gradient-6" x1="-53.421" y1="-0.843" x2="-53.928" y2="2.39" xlink:href="#linear-gradient-3"/>
    <linearGradient id="linear-gradient-7" x1="-14.178" y1="0.5" x2="-13.178" y2="0.5" xlink:href="#linear-gradient-2"/>
    <linearGradient id="linear-gradient-8" x1="-48.351" y1="-2.028" x2="-48.831" y2="0.687" xlink:href="#linear-gradient-3"/>
    <linearGradient id="linear-gradient-9" x1="-7.309" y1="1.152" x2="-6.517" y2="-0.284" xlink:href="#linear-gradient-2"/>
    <linearGradient id="linear-gradient-10" x1="2.252" y1="-0.791" x2="-2.568" y2="2.342" gradientUnits="objectBoundingBox">
      <stop offset="0" stop-color="#4042e2"/>
      <stop offset="1" stop-color="#4f52ff"/>
    </linearGradient>
    <linearGradient id="linear-gradient-11" x1="-17.788" y1="1.219" x2="-17.397" y2="0.33" xlink:href="#linear-gradient-3"/>
    <linearGradient id="linear-gradient-12" x1="1.312" y1="-4.691" x2="1.05" y2="-3.017" xlink:href="#linear-gradient-10"/>
    <linearGradient id="linear-gradient-13" x1="0.886" y1="-2.918" x2="0.734" y2="-1.558" xlink:href="#linear-gradient-10"/>
    <linearGradient id="linear-gradient-14" x1="-16.536" y1="0.277" x2="-18.795" y2="1.877" xlink:href="#linear-gradient-3"/>
    <linearGradient id="linear-gradient-15" x1="-12.351" y1="0.152" x2="-11.601" y2="1.129" xlink:href="#linear-gradient-2"/>
    <linearGradient id="linear-gradient-16" x1="-68.654" y1="-0.685" x2="-73.204" y2="1.784" xlink:href="#linear-gradient-3"/>
    <linearGradient id="linear-gradient-17" x1="-114.487" y1="-0.443" x2="-102.497" y2="3.609" xlink:href="#linear-gradient-3"/>
    <linearGradient id="linear-gradient-18" x1="-8.415" y1="-0.123" x2="-7.482" y2="1.014" xlink:href="#linear-gradient-3"/>
    <linearGradient id="linear-gradient-19" x1="-69.985" y1="0.261" x2="-62.787" y2="2.696" xlink:href="#linear-gradient-3"/>
    <linearGradient id="linear-gradient-20" x1="-0.776" y1="0.529" x2="-1.413" y2="2.466" gradientUnits="objectBoundingBox">
      <stop offset="0" stop-color="#e1473d"/>
      <stop offset="1" stop-color="#e9605a"/>
    </linearGradient>
    <linearGradient id="linear-gradient-21" x1="4.281" y1="-4.156" x2="3.693" y2="-2.497" xlink:href="#linear-gradient-4"/>
    <linearGradient id="linear-gradient-22" x1="-2.365" y1="1.376" x2="-1.337" y2="3.786" gradientUnits="objectBoundingBox">
      <stop offset="0" stop-color="#ff9085"/>
      <stop offset="1" stop-color="#fb6fbb"/>
    </linearGradient>
    <linearGradient id="linear-gradient-23" x1="0.594" y1="0.278" x2="0.933" y2="-0.972" xlink:href="#linear-gradient-4"/>
    <linearGradient id="linear-gradient-24" x1="1.69" y1="-1.805" x2="1.556" y2="-1.546" xlink:href="#linear-gradient-4"/>
    <linearGradient id="linear-gradient-25" x1="-3.867" y1="15.588" x2="-4.672" y2="20.695" xlink:href="#linear-gradient-3"/>
  </defs>
  <g id="Illustration" transform="translate(-923.235 -605.572)">
    <g id="Group_49" data-name="Group 49" transform="translate(956.25 552.377)">
      <g id="Group_31" data-name="Group 31" transform="translate(171.373 53.194)">
        <rect id="Rectangle_2" data-name="Rectangle 2" width="234.3" height="314.35" rx="23.034" fill="#28baaf"/>
        <path id="Rectangle_4" data-name="Rectangle 4" d="M22.8,0H126.736a22.8,22.8,0,0,1,22.8,22.8V168.643a22.8,22.8,0,0,1-22.8,22.8H22.8A22.8,22.8,0,0,1,0,168.643V22.8A22.8,22.8,0,0,1,22.8,0Z" transform="translate(42.201 65.794)" opacity="0.21" fill="url(#linear-gradient)"/>
        <path id="Path_91" data-name="Path 91" d="M2208.289,1097.228a7.009,7.009,0,1,1-7.009-7.009A7.009,7.009,0,0,1,2208.289,1097.228Z" transform="translate(-2084.557 -1073.124)" fill="url(#linear-gradient-2)"/>
        <path id="Path_92" data-name="Path 92" d="M1937.355,1948.589l-90.176,1.5c-6.863.114-12.447,5.451-12.447,11.92V2018.8c0,6.469,5.584,11.489,12.447,11.213l90.176-3.621a12.09,12.09,0,0,0,11.711-11.791v-54.885A11.286,11.286,0,0,0,1937.355,1948.589Z" transform="translate(-1775.349 -1811.332)" fill="#febbba"/>
        <path id="Path_93" data-name="Path 93" d="M2030.868,1572.267a4.782,4.782,0,0,1-4.949-4.708V1555.13c0-12.469-10.547-22.583-23.6-22.545l-29.377.085c-13.393.039-24.368,10.451-24.368,23.211V1568.6a5.143,5.143,0,0,1-5.2,4.971,4.98,4.98,0,0,1-5.214-4.831v-12.758c0-18.212,15.691-33.03,34.78-33.03h29.377c18.548,0,33.486,14.392,33.486,32.081v12.392A4.94,4.94,0,0,1,2030.868,1572.267Z" transform="translate(-1864.298 -1445.281)" fill="url(#linear-gradient-3)"/>
        <path id="Path_94" data-name="Path 94" d="M2206.412,2106.833c0-6.311-5.509-11.266-12.207-10.811-5.923.4-10.821,5.146-11.14,10.809a10.684,10.684,0,0,0,5.838,10.115,3.961,3.961,0,0,1,2.034,4.243l-2.575,14.448a2.922,2.922,0,0,0,3.1,3.387l6.617-.237a3.154,3.154,0,0,0,3.079-3.595l-2.573-14.314a4.243,4.243,0,0,1,2.146-4.34A11.388,11.388,0,0,0,2206.412,2106.833Z" transform="translate(-2074.905 -1938.103)" fill="url(#linear-gradient-4)"/>
      </g>
      <g id="Group_35" data-name="Group 35" transform="translate(-33.015 99.566)">
        <g id="Group_32" data-name="Group 32" transform="translate(0.818 137.861)">
          <path id="Path_95" data-name="Path 95" d="M957.2,3143.621a1.688,1.688,0,0,0-.045-.443c-2.209-8.759-13.175-14.215-13.175-14.215l-4.345.34c-2.5,7.721-2.177,12.455-1.776,14.564.011.06.029.116.045.172A103.008,103.008,0,0,0,957.2,3143.621Z" transform="translate(-928.752 -2996.831)" fill="url(#linear-gradient-5)"/>
          <path id="Path_96" data-name="Path 96" d="M939.512,3218a1.885,1.885,0,0,0,1.379,1.393c5.1,1.072,13.2.209,16.606-.236a1.581,1.581,0,0,0,1.312-1.576A103.074,103.074,0,0,1,939.512,3218Z" transform="translate(-930.363 -3070.796)" fill="#91b3fa"/>
          <path id="Path_97" data-name="Path 97" d="M939.416,3091.892l1.84,8.859a1.448,1.448,0,0,0,1.238,1.192,12.3,12.3,0,0,0,2.851-.045,1.821,1.821,0,0,0,1.442-2.14l-1.279-7.866Z" transform="translate(-930.283 -2965.892)" fill="url(#linear-gradient-6)"/>
          <path id="Path_98" data-name="Path 98" d="M1126.739,3213.267c-4.8-.135-7.281-.7-8.564-1.224,0,.477,0,.962.015,1.466a.947.947,0,0,0,.9.964l26.35-.17a1.2,1.2,0,0,0,.968-1.751C1142.957,3212.836,1134.157,3213.475,1126.739,3213.267Z" transform="translate(-1079.475 -3066.17)" fill="#91b3fa"/>
          <path id="Path_99" data-name="Path 99" d="M1146.417,3149.964a1.212,1.212,0,0,0-.1-.2c-2.327-3.251-8.254-9.726-19.965-12.534l-5.619-.177s-2.5,4.348-2.549,12.4c1.283.525,3.766,1.09,8.564,1.224C1134.163,3150.888,1142.962,3150.25,1146.417,3149.964Z" transform="translate(-1079.48 -3003.584)" fill="url(#linear-gradient-7)"/>
          <path id="Path_100" data-name="Path 100" d="M1125.779,3077.979c.089.414,1.258,6.718,1.711,9.162a1.223,1.223,0,0,0,1.1,1.037,12.862,12.862,0,0,0,3.848-.3,1.662,1.662,0,0,0,1.152-1.744l-.629-9.971Z" transform="translate(-1085.823 -2952.762)" fill="url(#linear-gradient-8)"/>
          <path id="Path_101" data-name="Path 101" d="M919.9,2338.9S927.624,2392,933.2,2455.2a2.408,2.408,0,0,1-1.99,2.445,29.232,29.232,0,0,1-6.282.727,2.327,2.327,0,0,1-2.218-1.943c-1.9-11.143-15.458-70.944-19.017-84.105,0,0-4.088,55.907-2.781,84.913a1.374,1.374,0,0,1-1.213,1.429,23.07,23.07,0,0,1-5.043-.014,1.84,1.84,0,0,1-1.639-1.562c-1.353-9.43-9.143-65.563-8.812-106,.019-2.28,2.675-21.016,2.675-21.016Z" transform="translate(-884.196 -2330.075)" fill="url(#linear-gradient-9)"/>
        </g>
        <path id="Path_102" data-name="Path 102" d="M1118.148,1843.429l1.035,27.79a76.419,76.419,0,0,0,8.4,2.386c1.667-5.366,5.336-11.951,8.341-16.848C1124.885,1852.854,1118.148,1843.429,1118.148,1843.429Z" transform="translate(-1078.635 -1786.056)" fill="url(#linear-gradient-10)"/>
        <path id="Path_103" data-name="Path 103" d="M881.592,1897.2a2.187,2.187,0,0,1-1.435-1.842c-1.028-9.971-6-71.8,25.412-97.229,0,0,1.8-4.714,16.611,6.874s6.88,23.732,3.335,40.484c-4.29,20.271-11.818,36.841-8.488,49.315a1.729,1.729,0,0,1-1.059,2.073A49.052,49.052,0,0,1,881.592,1897.2Z" transform="translate(-879.25 -1747.461)" fill="#fd5656"/>
        <path id="Path_104" data-name="Path 104" d="M1049.121,1690.922c-.01.88-12.555,18.7-12.555,18.7s2.252,4.435,13,8.035l9.279-19.078Z" transform="translate(-1010.547 -1658.773)" fill="url(#linear-gradient-11)"/>
        <path id="Path_105" data-name="Path 105" d="M998.993,1966.478a.4.4,0,0,1-.228-.07c-10.021-6.771-14.736-17.7-14.782-17.81a.408.408,0,0,1,.75-.319c.045.108,4.672,10.821,14.488,17.453a.407.407,0,0,1-.228.745Z" transform="translate(-966.634 -1873.358)" fill="url(#linear-gradient-12)"/>
        <path id="Path_106" data-name="Path 106" d="M1032.905,1853.481a.408.408,0,0,1-.343-.187c-.03-.047-3.092-4.813-8.923-15.255-1.793-3.211-4.15-5.244-7-6.043-4.728-1.321-9.284,1.214-9.329,1.239a.407.407,0,1,1-.4-.708,14.224,14.224,0,0,1,9.943-1.317c3.075.858,5.6,3.021,7.5,6.431,5.817,10.416,8.867,15.165,8.9,15.211a.408.408,0,0,1-.342.628Z" transform="translate(-985.618 -1775.509)" fill="url(#linear-gradient-13)"/>
        <g id="Group_33" data-name="Group 33" transform="translate(22.54 10.746)">
          <path id="Path_107" data-name="Path 107" d="M1081.852,1629.189s4.464,10.254,4.764,15.636,1.46,8.874-4.764,9.958-11.465-2.016-14.3-7.377c0,0-4.45-8.261-3.452-11.644S1081.852,1629.189,1081.852,1629.189Z" transform="translate(-1055.941 -1617.996)" fill="url(#linear-gradient-14)"/>
          <path id="Path_108" data-name="Path 108" d="M1029.261,1587.069l.354-.156a.854.854,0,0,0,.417-1.174c-.878-1.7-2.588-5.581-.379-6.487,2.848-1.168,14.13-3.469,16.564-7.472,2.339-3.847.267-8.814-2.849-10.226a.429.429,0,0,0-.561.183l-.26.491a.423.423,0,0,1-.78-.08h0a.421.421,0,0,0-.761-.109c-.748,1.2-2.768,3.139-8.17,4.136-7.677,1.417-12.753,4.524-12.879,9.829a.423.423,0,0,1-.655.349c-.567-.345-1.474-.507-2.686.512-2.109,1.773-1.246,6.372,3.376,10.154a.42.42,0,0,1-.02.677c-.838.546-2.087,1.843,1.149,3.573a10.9,10.9,0,0,0,6.81,1.484.421.421,0,0,0,.342-.509l-1.027-4.662a.423.423,0,0,1,.413-.514Z" transform="translate(-1015.529 -1561.514)" fill="url(#linear-gradient-15)"/>
          <path id="Path_109" data-name="Path 109" d="M1071.43,1696.548s-1.7-6.55-4.64-4.714,1.524,7.339,3.885,7.584Z" transform="translate(-1057.504 -1670.009)" fill="url(#linear-gradient-16)"/>
        </g>
        <path id="Path_110" data-name="Path 110" d="M1436.727,1778.044s-2.238-3.967-2.1-5.894-1.059-4.757.219-4.548,1.542.039,1.889,2.351S1441.119,1782.366,1436.727,1778.044Z" transform="translate(-1342.461 -1722.761)" fill="url(#linear-gradient-17)"/>
        <path id="Path_111" data-name="Path 111" d="M1220.938,1792.658l-.051,7.924c-15.145,16.352-27.4,17.315-37.345,13.8-3.005,4.9-6.675,11.482-8.342,16.848,40.445,8.917,49.969-28.265,49.969-28.265,5.478-2.269,6.582-3.6,6.347-5.083Z" transform="translate(-1126.252 -1743.682)" fill="url(#linear-gradient-18)"/>
        <path id="Path_112" data-name="Path 112" d="M1486.241,1724.54c-1.292-.525-3.822-5.348-4.307-3.761s.2,3.761,0,4.436-3.358,8.436-2.728,10.161c.454,1.244,2.958,1.06,3.34,3.1a1.3,1.3,0,0,0,2.588,0C1485.185,1738.2,1487.534,1725.064,1486.241,1724.54Z" transform="translate(-1379.907 -1683.425)" fill="url(#linear-gradient-19)"/>
        <g id="Group_34" data-name="Group 34" transform="translate(60.634)">
          <path id="Path_113" data-name="Path 113" d="M1250.27,1531.8a40.99,40.99,0,0,0,66.018,47.015l70.182,35.484a3.816,3.816,0,0,0,3.674-.127l6.864-4.089a3.886,3.886,0,0,0,.338-.229c.03-.023.059-.047.089-.071.08-.064.157-.13.23-.2.025-.024.05-.047.075-.071a3.751,3.751,0,0,0,.259-.282l0,0a3.814,3.814,0,0,0,.6-3.836l-5.578-13.982a3.816,3.816,0,0,0-1.822-1.992l-7.03-3.554-1.86,3.679-6.039-3.053,1.861-3.679-5.65-2.856-1.712,3.385-7.339-3.711,1.711-3.385-2.735-1.382-.881,1.742-6.153-3.111.881-1.742-4.785-2.42-1.86,3.679-3.418-1.728,1.86-3.679-2.963-1.5-1.86,3.679-5.925-3,1.86-3.679-8.328-4.21h0l-3.567-1.8a40.99,40.99,0,0,0-77-25.3Zm23.911,2.79a8.3,8.3,0,1,1-11.15,3.662A8.3,8.3,0,0,1,1274.181,1534.589Z" transform="translate(-1245.852 -1507.189)" fill="url(#linear-gradient-20)"/>
          <path id="Path_114" data-name="Path 114" d="M1595.593,1720.178l33.27,16.822-1.86,3.679,5.925,3,1.86-3.679,2.963,1.5-1.86,3.679,3.418,1.728,1.86-3.679,4.785,2.419-.881,1.743,6.153,3.111.881-1.742,2.734,1.383-1.711,3.385,7.339,3.71,1.711-3.385,5.65,2.856-1.86,3.679,6.039,3.053,1.86-3.679,7.029,3.554a3.816,3.816,0,0,1,1.822,1.991l5.578,13.982a3.816,3.816,0,0,1-1.591,4.692l-6.864,4.089a3.817,3.817,0,0,1-3.674.127l-84.721-42.835Z" transform="translate(-1534.288 -1683.19)" fill="url(#linear-gradient-21)"/>
          <path id="Path_115" data-name="Path 115" d="M1275.989,1574.111a40.983,40.983,0,1,0-18.082-55.066A40.983,40.983,0,0,0,1275.989,1574.111Zm-1.66-37.464a8.3,8.3,0,1,1,11.151-3.661A8.3,8.3,0,0,1,1274.329,1536.647Z" transform="translate(-1252.226 -1496.544)" fill="url(#linear-gradient-22)"/>
          <path id="Path_116" data-name="Path 116" d="M1323.925,1566.059l70.182,35.484a3.816,3.816,0,0,0,3.674-.127l6.864-4.089a3.806,3.806,0,0,0,1.824-2.786c-6.4-6.931-67.2-33.481-69.473-38.945-.809-1.944-.948-4.888,1.476-9.453l-3.566-1.8a40.983,40.983,0,1,0-10.982,21.719Zm-42.107-44.224a8.3,8.3,0,1,1-11.15,3.662A8.3,8.3,0,0,1,1281.818,1521.835Z" transform="translate(-1252.226 -1496.544)" fill="url(#linear-gradient-23)"/>
          <path id="Path_117" data-name="Path 117" d="M1320.216,1607.53a32.94,32.94,0,1,0-14.533-44.259A32.939,32.939,0,0,0,1320.216,1607.53Zm-5.289-30.286a8.3,8.3,0,1,1,11.151-3.661A8.3,8.3,0,0,1,1314.927,1577.245Z" transform="translate(-1292.823 -1537.142)" fill="url(#linear-gradient-24)"/>
        </g>
        <path id="Path_118" data-name="Path 118" d="M1074.9,1971.953s38.595,12.92,60.182-3.516a6.119,6.119,0,0,1,4.689-1.193l8.247,1.344a6.6,6.6,0,0,0,7.505-5.106,13.878,13.878,0,0,0,.2-5.929l-15.569-.939.445-2.021s-6.881,1.684-7.02,7.067c0,0-16.142,10.574-45.583-5.838C1087.994,1955.821,1076.53,1964.793,1074.9,1971.953Z" transform="translate(-1042.541 -1878.834)" fill="url(#linear-gradient-25)"/>
      </g>
    </g>
  </g>
</svg>
