<svg xmlns="http://www.w3.org/2000/svg" xmlns:xlink="http://www.w3.org/1999/xlink" width="1938" height="215" viewBox="0 0 1938 215">
  <defs>
    <filter id="Rectangle_20" x="0" y="0" width="1938" height="215" filterUnits="userSpaceOnUse">
      <feOffset dy="7" input="SourceAlpha"/>
      <feGaussianBlur stdDeviation="3" result="blur"/>
      <feFlood flood-opacity="0.161"/>
      <feComposite operator="in" in2="blur"/>
      <feComposite in="SourceGraphic"/>
    </filter>
  </defs>
  <g id="White_Bg" data-name="White Bg" transform="translate(79 11)">
    <g transform="matrix(1, 0, 0, 1, -79, -11)" filter="url(#Rectangle_20)">
      <rect id="Rectangle_20-2" data-name="Rectangle 20" width="1920" height="197" transform="translate(9 2)" fill="#fff" opacity="0.25"/>
    </g>
  </g>
</svg>
